{
    "version": "https://jsonfeed.org/version/1",
    "title": "Diaries of Me",
    "description": "",
    "home_page_url": "https://koosha01.github.io",
    "feed_url": "https://koosha01.github.io/feed.json",
    "user_comment": "",
    "author": {
        "name": "Koosha"
    },
    "items": [
        {
            "id": "https://koosha01.github.io/hello-world.html",
            "url": "https://koosha01.github.io/hello-world.html",
            "title": "Hello World!",
            "summary": "Hello world!",
            "content_html": "<p>Hello world!</p>",
            "author": {
                "name": "Koosha"
            },
            "tags": [
            ],
            "date_published": "2020-09-13T22:32:45+04:30",
            "date_modified": "2020-09-13T22:32:45+04:30"
        }
    ]
}
